,patient_id,breast_density,side,view,abn_num,abnormality_type,mass_shape,mass_margins,calc_type,calc_distribution,assessment,pathology,subtlety,scanner_type,scan_institution,width,height,bpp,resolution,x_lo,y_lo,x_hi,y_hi,od_img_path,od_crop_path,mask_path
0,C-0001-1,2,RIGHT,MLO,1,mass,IRREGULAR,ILL_DEFINED,,,4,MALIGNANT,3,LUMISYS,WFU,2888,4616,12,50.0,1472,1576,2448,2264,/home/ines/Desktop/mammography-screening-cancer-analysis/cancer_analysis/ddsm_tools/DDSM/cases/cancers/cancer_01/case0001/Volumes/od_images/C_0001_1.RIGHT_MLO.tif,/home/ines/Desktop/mammography-screening-cancer-analysis/cancer_analysis/ddsm_tools/DDSM/cases/cancers/cancer_01/case0001/Volumes/od_cropped_images/C_0001_1.RIGHT_MLO_1.tif,/home/ines/Desktop/mammography-screening-cancer-analysis/cancer_analysis/ddsm_tools/DDSM/cases/cancers/cancer_01/case0001/Volumes/mask_images/C_0001_1.RIGHT_MLO_1.tif
1,C-0001-1,2,RIGHT,CC,1,mass,IRREGULAR,SPICULATED,,,5,MALIGNANT,5,LUMISYS,WFU,2920,4584,12,50.0,1816,1144,2592,1856,/home/ines/Desktop/mammography-screening-cancer-analysis/cancer_analysis/ddsm_tools/DDSM/cases/cancers/cancer_01/case0001/Volumes/od_images/C_0001_1.RIGHT_CC.tif,/home/ines/Desktop/mammography-screening-cancer-analysis/cancer_analysis/ddsm_tools/DDSM/cases/cancers/cancer_01/case0001/Volumes/od_cropped_images/C_0001_1.RIGHT_CC_1.tif,/home/ines/Desktop/mammography-screening-cancer-analysis/cancer_analysis/ddsm_tools/DDSM/cases/cancers/cancer_01/case0001/Volumes/mask_images/C_0001_1.RIGHT_CC_1.tif
2,C-0003-1,2,RIGHT,CC,1,mass,IRREGULAR,SPICULATED,,,5,MALIGNANT,5,LUMISYS,WFU,3824,5928,12,50.0,1760,2832,2120,3240,/home/ines/Desktop/mammography-screening-cancer-analysis/cancer_analysis/ddsm_tools/DDSM/cases/cancers/cancer_01/case0003/Volumes/od_images/C_0003_1.RIGHT_CC.tif,/home/ines/Desktop/mammography-screening-cancer-analysis/cancer_analysis/ddsm_tools/DDSM/cases/cancers/cancer_01/case0003/Volumes/od_cropped_images/C_0003_1.RIGHT_CC_1.tif,/home/ines/Desktop/mammography-screening-cancer-analysis/cancer_analysis/ddsm_tools/DDSM/cases/cancers/cancer_01/case0003/Volumes/mask_images/C_0003_1.RIGHT_CC_1.tif
3,C-0003-1,2,RIGHT,MLO,1,mass,IRREGULAR,SPICULATED,,,5,MALIGNANT,4,LUMISYS,WFU,4032,5960,12,50.0,1080,3144,1536,3824,/home/ines/Desktop/mammography-screening-cancer-analysis/cancer_analysis/ddsm_tools/DDSM/cases/cancers/cancer_01/case0003/Volumes/od_images/C_0003_1.RIGHT_MLO.tif,/home/ines/Desktop/mammography-screening-cancer-analysis/cancer_analysis/ddsm_tools/DDSM/cases/cancers/cancer_01/case0003/Volumes/od_cropped_images/C_0003_1.RIGHT_MLO_1.tif,/home/ines/Desktop/mammography-screening-cancer-analysis/cancer_analysis/ddsm_tools/DDSM/cases/cancers/cancer_01/case0003/Volumes/mask_images/C_0003_1.RIGHT_MLO_1.tif
4,C-0004-1,3,RIGHT,CC,1,mass,IRREGULAR,SPICULATED,,,5,MALIGNANT,5,LUMISYS,WFU,2944,4712,12,50.0,2240,720,2936,1456,/home/ines/Desktop/mammography-screening-cancer-analysis/cancer_analysis/ddsm_tools/DDSM/cases/cancers/cancer_01/case0004/Volumes/od_images/C_0004_1.RIGHT_CC.tif,/home/ines/Desktop/mammography-screening-cancer-analysis/cancer_analysis/ddsm_tools/DDSM/cases/cancers/cancer_01/case0004/Volumes/od_cropped_images/C_0004_1.RIGHT_CC_1.tif,/home/ines/Desktop/mammography-screening-cancer-analysis/cancer_analysis/ddsm_tools/DDSM/cases/cancers/cancer_01/case0004/Volumes/mask_images/C_0004_1.RIGHT_CC_1.tif
5,C-0004-1,3,RIGHT,MLO,1,mass,IRREGULAR,SPICULATED,,,5,MALIGNANT,5,LUMISYS,WFU,2968,4648,12,50.0,1640,1000,2728,1992,/home/ines/Desktop/mammography-screening-cancer-analysis/cancer_analysis/ddsm_tools/DDSM/cases/cancers/cancer_01/case0004/Volumes/od_images/C_0004_1.RIGHT_MLO.tif,/home/ines/Desktop/mammography-screening-cancer-analysis/cancer_analysis/ddsm_tools/DDSM/cases/cancers/cancer_01/case0004/Volumes/od_cropped_images/C_0004_1.RIGHT_MLO_1.tif,/home/ines/Desktop/mammography-screening-cancer-analysis/cancer_analysis/ddsm_tools/DDSM/cases/cancers/cancer_01/case0004/Volumes/mask_images/C_0004_1.RIGHT_MLO_1.tif
6,C-0002-1,2,LEFT,CC,1,calcification,,,PLEOMORPHIC,SEGMENTAL,4,MALIGNANT,2,LUMISYS,WFU,3776,5928,12,50.0,664,2456,1840,3088,/home/ines/Desktop/mammography-screening-cancer-analysis/cancer_analysis/ddsm_tools/DDSM/cases/cancers/cancer_01/case0002/Volumes/od_images/C_0002_1.LEFT_CC.tif,/home/ines/Desktop/mammography-screening-cancer-analysis/cancer_analysis/ddsm_tools/DDSM/cases/cancers/cancer_01/case0002/Volumes/od_cropped_images/C_0002_1.LEFT_CC_1.tif,/home/ines/Desktop/mammography-screening-cancer-analysis/cancer_analysis/ddsm_tools/DDSM/cases/cancers/cancer_01/case0002/Volumes/mask_images/C_0002_1.LEFT_CC_1.tif
7,C-0002-1,2,LEFT,MLO,1,calcification,,,PLEOMORPHIC,SEGMENTAL,4,MALIGNANT,1,LUMISYS,WFU,4104,5824,12,50.0,1000,3728,1904,4208,/home/ines/Desktop/mammography-screening-cancer-analysis/cancer_analysis/ddsm_tools/DDSM/cases/cancers/cancer_01/case0002/Volumes/od_images/C_0002_1.LEFT_MLO.tif,/home/ines/Desktop/mammography-screening-cancer-analysis/cancer_analysis/ddsm_tools/DDSM/cases/cancers/cancer_01/case0002/Volumes/od_cropped_images/C_0002_1.LEFT_MLO_1.tif,/home/ines/Desktop/mammography-screening-cancer-analysis/cancer_analysis/ddsm_tools/DDSM/cases/cancers/cancer_01/case0002/Volumes/mask_images/C_0002_1.LEFT_MLO_1.tif
