patient_id,breast_density,side,view,abn_num,abnormality_type,mass_shape,mass_margins,calc_type,calc_distribution,assessment,pathology,subtlety,scanner_type,scan_institution,width,height,bpp,resolution,x_lo,y_lo,x_hi,y_hi,od_img_path,od_crop_path,mask_path
C-0002-1,2,LEFT,CC,1,calcification,,,PLEOMORPHIC,SEGMENTAL,4,MALIGNANT,2,LUMISYS,WFU,3776,5928,12,50.0,664,2456,1840,3088,/home/ines/Desktop/mammography-screening-cancer-analysis/cancer_analysis/ddsm_tools/DDSM/cases/cancers/cancer_01/case0002/Volumes/od_images/C_0002_1.LEFT_CC.tif,/home/ines/Desktop/mammography-screening-cancer-analysis/cancer_analysis/ddsm_tools/DDSM/cases/cancers/cancer_01/case0002/Volumes/od_cropped_images/C_0002_1.LEFT_CC_1.tif,/home/ines/Desktop/mammography-screening-cancer-analysis/cancer_analysis/ddsm_tools/DDSM/cases/cancers/cancer_01/case0002/Volumes/mask_images/C_0002_1.LEFT_CC_1.tif
C-0002-1,2,LEFT,MLO,1,calcification,,,PLEOMORPHIC,SEGMENTAL,4,MALIGNANT,1,LUMISYS,WFU,4104,5824,12,50.0,1000,3728,1904,4208,/home/ines/Desktop/mammography-screening-cancer-analysis/cancer_analysis/ddsm_tools/DDSM/cases/cancers/cancer_01/case0002/Volumes/od_images/C_0002_1.LEFT_MLO.tif,/home/ines/Desktop/mammography-screening-cancer-analysis/cancer_analysis/ddsm_tools/DDSM/cases/cancers/cancer_01/case0002/Volumes/od_cropped_images/C_0002_1.LEFT_MLO_1.tif,/home/ines/Desktop/mammography-screening-cancer-analysis/cancer_analysis/ddsm_tools/DDSM/cases/cancers/cancer_01/case0002/Volumes/mask_images/C_0002_1.LEFT_MLO_1.tif
